{
    "json": {
        "methods": {
            "hasKey": {
                "files": {
                    "json1": {
                        "path": "./json/object.json"
                    },
                    "json2": {
                        "path": "./json/array.json"
                    }
                },
                "calls": [
                    {
                        "name": "<<asserter>>",
                        "args": [
                            "$json1"
                        ],
                        "calls": [
                            {
                                "name": "<<assertion>>",
                                "args": [
                                    "foo"
                                ]
                            },
                            {
                                "name": "<<assertion>>",
                                "args": [
                                    "bar"
                                ]
                            }
                        ]
                    },
                    {
                        "name": "<<asserter>>",
                        "args": [
                            "$json2"
                        ],
                        "calls": [
                            {
                                "name": "<<assertion>>",
                                "args": [
                                    "0"
                                ]
                            }
                        ]
                    }
                ]
            },
            "hasKeys": {
                "files": {
                    "json1": {
                        "path": "./json/object.json"
                    },
                    "json2": {
                        "path": "./json/array.json"
                    }
                },
                "calls": [
                    {
                        "name": "<<asserter>>",
                        "args": [
                            "$json1"
                        ],
                        "calls": [
                            {
                                "name": "<<assertion>>",
                                "args": [
                                    ["foo"]
                                ]
                            },
                            {
                                "name": "<<assertion>>",
                                "args": [
                                    ["bar"]
                                ]
                            },
                            {
                                "name": "<<assertion>>",
                                "args": [
                                    [
                                        "foo",
                                        "bar"
                                    ]
                                ]
                            }
                        ]
                    },
                    {
                        "name": "<<asserter>>",
                        "args": [
                            "$json2"
                        ],
                        "calls": [
                            {
                                "name": "<<assertion>>",
                                "args": [
                                    ["0"]
                                ]
                            }
                        ]
                    }
                ]
            },
            "hasSize": {
                "files": {
                    "json1": {
                        "path": "./json/array.json"
                    },
                    "json2": {
                        "path": "./json/string.json"
                    },
                    "json3": {
                        "path": "./json/object.json"
                    }
                },
                "calls": [
                    {
                        "name": "<<asserter>>",
                        "args": [
                            "$json1"
                        ],
                        "calls": [
                            {
                                "name": "<<assertion>>",
                                "args": [
                                    2
                                ]
                            },
                            {
                                "name": "<<assertion>>",
                                "args": [
                                    3
                                ]
                            }
                        ]
                    },
                    {
                        "name": "<<asserter>>",
                        "args": [
                            "$json2"
                        ],
                        "calls": [
                            {
                                "name": "<<assertion>>",
                                "args": [
                                    1
                                ]
                            }
                        ]
                    },
                    {
                        "name": "<<asserter>>",
                        "args": [
                            "$json3"
                        ],
                        "calls": [
                            {
                                "name": "<<assertion>>",
                                "args": [
                                    1
                                ]
                            }
                        ]
                    }
                ]
            },
            "is": {
                "files": {
                    "json1": {
                        "path": "./json/array.json"
                    },
                    "json2": {
                        "path": "./json/string.json"
                    },
                    "json3": {
                        "path": "./json/object.json"
                    }
                },
                "calls": [
                    {
                        "name": "<<asserter>>",
                        "args": [
                            "$json1"
                        ],
                        "calls": [
                            {
                                "name": "<<assertion>>",
                                "args": [
                                    "null"
                                ]
                            },
                            {
                                "name": "<<assertion>>",
                                "args": [
                                    "boolean"
                                ]
                            },
                            {
                                "name": "<<assertion>>",
                                "args": [
                                    "integer"
                                ]
                            },
                            {
                                "name": "<<assertion>>",
                                "args": [
                                    "float"
                                ]
                            },
                            {
                                "name": "<<assertion>>",
                                "args": [
                                    "string"
                                ]
                            },
                            {
                                "name": "<<assertion>>",
                                "args": [
                                    "array"
                                ]
                            },
                            {
                                "name": "<<assertion>>",
                                "args": [
                                    "object"
                                ]
                            }
                        ]
                    },
                    {
                        "name": "<<asserter>>",
                        "args": [
                            "$json2"
                        ],
                        "calls": [
                            {
                                "name": "<<assertion>>",
                                "args": [
                                    "null"
                                ]
                            },
                            {
                                "name": "<<assertion>>",
                                "args": [
                                    "boolean"
                                ]
                            },
                            {
                                "name": "<<assertion>>",
                                "args": [
                                    "integer"
                                ]
                            },
                            {
                                "name": "<<assertion>>",
                                "args": [
                                    "float"
                                ]
                            },
                            {
                                "name": "<<assertion>>",
                                "args": [
                                    "string"
                                ]
                            },
                            {
                                "name": "<<assertion>>",
                                "args": [
                                    "array"
                                ]
                            },
                            {
                                "name": "<<assertion>>",
                                "args": [
                                    "object"
                                ]
                            }
                        ]
                    },
                    {
                        "name": "<<asserter>>",
                        "args": [
                            "$json3"
                        ],
                        "calls": [
                            {
                                "name": "<<assertion>>",
                                "args": [
                                    "null"
                                ]
                            },
                            {
                                "name": "<<assertion>>",
                                "args": [
                                    "boolean"
                                ]
                            },
                            {
                                "name": "<<assertion>>",
                                "args": [
                                    "integer"
                                ]
                            },
                            {
                                "name": "<<assertion>>",
                                "args": [
                                    "float"
                                ]
                            },
                            {
                                "name": "<<assertion>>",
                                "args": [
                                    "string"
                                ]
                            },
                            {
                                "name": "<<assertion>>",
                                "args": [
                                    "array"
                                ]
                            },
                            {
                                "name": "<<assertion>>",
                                "args": [
                                    "object"
                                ]
                            }
                        ]
                    }
                ]
            },
            "isArray": {
                "description": "`<<asserter>>` indicates if the JSON is an array.",
                "files": {
                    "json1": {
                        "path": "./json/array.json"
                    },
                    "json2": {
                        "path": "./json/string.json"
                    },
                    "json3": {
                        "path": "./json/object.json"
                    }
                },
                "calls": [
                    {
                        "name": "<<asserter>>",
                        "args": [
                            "$json1"
                        ],
                        "calls": [
                            {
                                "name": "<<assertion>>"
                            }
                        ]
                    },
                    {
                        "name": "<<asserter>>",
                        "args": [
                            "$json2"
                        ],
                        "calls": [
                            {
                                "name": "<<assertion>>"
                            }
                        ]
                    },
                    {
                        "name": "<<asserter>>",
                        "args": [
                            "$json3"
                        ],
                        "calls": [
                            {
                                "name": "<<assertion>>"
                            }
                        ]
                    }
                ]
            },
            "isNotArray": {
                "description": "`<<asserter>>` indicates if the JSON is not an array.",
                "files": {
                    "json1": {
                        "path": "./json/array.json"
                    },
                    "json2": {
                        "path": "./json/string.json"
                    },
                    "json3": {
                        "path": "./json/object.json"
                    }
                },
                "calls": [
                    {
                        "name": "<<asserter>>",
                        "args": [
                            "$json1"
                        ],
                        "calls": [
                            {
                                "name": "<<assertion>>"
                            }
                        ]
                    },
                    {
                        "name": "<<asserter>>",
                        "args": [
                            "$json2"
                        ],
                        "calls": [
                            {
                                "name": "<<assertion>>"
                            }
                        ]
                    },
                    {
                        "name": "<<asserter>>",
                        "args": [
                            "$json3"
                        ],
                        "calls": [
                            {
                                "name": "<<assertion>>"
                            }
                        ]
                    }
                ]
            },
            "isBool": {
                "description": "`<<asserter>>` indicates if the JSON is a boolean.",
                "files": {
                    "json1": {
                        "path": "./json/true.json"
                    },
                    "json2": {
                        "path": "./json/false.json"
                    },
                    "json3": {
                        "path": "./json/null.json"
                    },
                    "json4": {
                        "path": "./json/object.json"
                    }
                },
                "calls": [
                    {
                        "name": "<<asserter>>",
                        "args": [
                            "$json1"
                        ],
                        "calls": [
                            {
                                "name": "<<assertion>>"
                            }
                        ]
                    },
                    {
                        "name": "<<asserter>>",
                        "args": [
                            "$json2"
                        ],
                        "calls": [
                            {
                                "name": "<<assertion>>"
                            }
                        ]
                    },
                    {
                        "name": "<<asserter>>",
                        "args": [
                            "$json3"
                        ],
                        "calls": [
                            {
                                "name": "<<assertion>>"
                            }
                        ]
                    },
                    {
                        "name": "<<asserter>>",
                        "args": [
                            "$json4"
                        ],
                        "calls": [
                            {
                                "name": "<<assertion>>"
                            }
                        ]
                    }
                ]
            },
            "isNotBool": {
                "description": "`<<asserter>>` indicates if the JSON is not a boolean.",
                "files": {
                    "json1": {
                        "path": "./json/true.json"
                    },
                    "json2": {
                        "path": "./json/false.json"
                    },
                    "json3": {
                        "path": "./json/null.json"
                    },
                    "json4": {
                        "path": "./json/object.json"
                    }
                },
                "calls": [
                    {
                        "name": "<<asserter>>",
                        "args": [
                            "$json1"
                        ],
                        "calls": [
                            {
                                "name": "<<assertion>>"
                            }
                        ]
                    },
                    {
                        "name": "<<asserter>>",
                        "args": [
                            "$json2"
                        ],
                        "calls": [
                            {
                                "name": "<<assertion>>"
                            }
                        ]
                    },
                    {
                        "name": "<<asserter>>",
                        "args": [
                            "$json3"
                        ],
                        "calls": [
                            {
                                "name": "<<assertion>>"
                            }
                        ]
                    },
                    {
                        "name": "<<asserter>>",
                        "args": [
                            "$json4"
                        ],
                        "calls": [
                            {
                                "name": "<<assertion>>"
                            }
                        ]
                    }
                ]
            },
            "isBoolean": {
                "description": "`<<asserter>>` indicates if the JSON is not a boolean.",
                "files": {
                    "json1": {
                        "path": "./json/true.json"
                    },
                    "json2": {
                        "path": "./json/false.json"
                    },
                    "json3": {
                        "path": "./json/null.json"
                    },
                    "json4": {
                        "path": "./json/object.json"
                    }
                },
                "calls": [
                    {
                        "name": "<<asserter>>",
                        "args": [
                            "$json1"
                        ],
                        "calls": [
                            {
                                "name": "<<assertion>>"
                            }
                        ]
                    },
                    {
                        "name": "<<asserter>>",
                        "args": [
                            "$json2"
                        ],
                        "calls": [
                            {
                                "name": "<<assertion>>"
                            }
                        ]
                    },
                    {
                        "name": "<<asserter>>",
                        "args": [
                            "$json3"
                        ],
                        "calls": [
                            {
                                "name": "<<assertion>>"
                            }
                        ]
                    },
                    {
                        "name": "<<asserter>>",
                        "args": [
                            "$json4"
                        ],
                        "calls": [
                            {
                                "name": "<<assertion>>"
                            }
                        ]
                    }
                ]
            },
            "isNotBoolean": {
                "description": "`<<asserter>>` indicates if the JSON is not a boolean.",
                "files": {
                    "json1": {
                        "path": "./json/true.json"
                    },
                    "json2": {
                        "path": "./json/false.json"
                    },
                    "json3": {
                        "path": "./json/null.json"
                    },
                    "json4": {
                        "path": "./json/object.json"
                    }
                },
                "calls": [
                    {
                        "name": "<<asserter>>",
                        "args": [
                            "$json1"
                        ],
                        "calls": [
                            {
                                "name": "<<assertion>>"
                            }
                        ]
                    },
                    {
                        "name": "<<asserter>>",
                        "args": [
                            "$json2"
                        ],
                        "calls": [
                            {
                                "name": "<<assertion>>"
                            }
                        ]
                    },
                    {
                        "name": "<<asserter>>",
                        "args": [
                            "$json3"
                        ],
                        "calls": [
                            {
                                "name": "<<assertion>>"
                            }
                        ]
                    },
                    {
                        "name": "<<asserter>>",
                        "args": [
                            "$json4"
                        ],
                        "calls": [
                            {
                                "name": "<<assertion>>"
                            }
                        ]
                    }
                ]
            },
            "isEqualTo": {},
            "isFloat": {
                "description": "`<<asserter>>` indicates if the JSON is a float.",
                "files": {
                    "json1": {
                        "path": "./json/float.json"
                    },
                    "json2": {
                        "path": "./json/integer.json"
                    },
                    "json3": {
                        "path": "./json/object.json"
                    }
                },
                "calls": [
                    {
                        "name": "<<asserter>>",
                        "args": [
                            "$json1"
                        ],
                        "calls": [
                            {
                                "name": "<<assertion>>"
                            }
                        ]
                    },
                    {
                        "name": "<<asserter>>",
                        "args": [
                            "$json2"
                        ],
                        "calls": [
                            {
                                "name": "<<assertion>>"
                            }
                        ]
                    },
                    {
                        "name": "<<asserter>>",
                        "args": [
                            "$json3"
                        ],
                        "calls": [
                            {
                                "name": "<<assertion>>"
                            }
                        ]
                    }
                ]
            },
            "isNotFloat": {
                "description": "`<<asserter>>` indicates if the JSON is not a float.",
                "files": {
                    "json1": {
                        "path": "./json/float.json"
                    },
                    "json2": {
                        "path": "./json/integer.json"
                    },
                    "json3": {
                        "path": "./json/object.json"
                    }
                },
                "calls": [
                    {
                        "name": "<<asserter>>",
                        "args": [
                            "$json1"
                        ],
                        "calls": [
                            {
                                "name": "<<assertion>>"
                            }
                        ]
                    },
                    {
                        "name": "<<asserter>>",
                        "args": [
                            "$json2"
                        ],
                        "calls": [
                            {
                                "name": "<<assertion>>"
                            }
                        ]
                    },
                    {
                        "name": "<<asserter>>",
                        "args": [
                            "$json3"
                        ],
                        "calls": [
                            {
                                "name": "<<assertion>>"
                            }
                        ]
                    }
                ]
            },
            "isIdenticalTo": {},
            "isInteger": {
                "description": "`<<asserter>>` indicates if the JSON is an integer.",
                "files": {
                    "json1": {
                        "path": "./json/integer.json"
                    },
                    "json2": {
                        "path": "./json/float.json"
                    },
                    "json3": {
                        "path": "./json/object.json"
                    }
                },
                "calls": [
                    {
                        "name": "<<asserter>>",
                        "args": [
                            "$json1"
                        ],
                        "calls": [
                            {
                                "name": "<<assertion>>"
                            }
                        ]
                    },
                    {
                        "name": "<<asserter>>",
                        "args": [
                            "$json2"
                        ],
                        "calls": [
                            {
                                "name": "<<assertion>>"
                            }
                        ]
                    },
                    {
                        "name": "<<asserter>>",
                        "args": [
                            "$json3"
                        ],
                        "calls": [
                            {
                                "name": "<<assertion>>"
                            }
                        ]
                    }
                ]
            },
            "isNotInteger": {
                "description": "`<<asserter>>` indicates if the JSON is not an integer.",
                "files": {
                    "json1": {
                        "path": "./json/integer.json"
                    },
                    "json2": {
                        "path": "./json/float.json"
                    },
                    "json3": {
                        "path": "./json/object.json"
                    }
                },
                "calls": [
                    {
                        "name": "<<asserter>>",
                        "args": [
                            "$json1"
                        ],
                        "calls": [
                            {
                                "name": "<<assertion>>"
                            }
                        ]
                    },
                    {
                        "name": "<<asserter>>",
                        "args": [
                            "$json2"
                        ],
                        "calls": [
                            {
                                "name": "<<assertion>>"
                            }
                        ]
                    },
                    {
                        "name": "<<asserter>>",
                        "args": [
                            "$json3"
                        ],
                        "calls": [
                            {
                                "name": "<<assertion>>"
                            }
                        ]
                    }
                ]
            },
            "isInteger": {
                "description": "`<<asserter>>` indicates if the JSON is an integer.",
                "files": {
                    "json1": {
                        "path": "./json/integer.json"
                    },
                    "json2": {
                        "path": "./json/float.json"
                    },
                    "json3": {
                        "path": "./json/object.json"
                    }
                },
                "calls": [
                    {
                        "name": "<<asserter>>",
                        "args": [
                            "$json1"
                        ],
                        "calls": [
                            {
                                "name": "<<assertion>>"
                            }
                        ]
                    },
                    {
                        "name": "<<asserter>>",
                        "args": [
                            "$json2"
                        ],
                        "calls": [
                            {
                                "name": "<<assertion>>"
                            }
                        ]
                    },
                    {
                        "name": "<<asserter>>",
                        "args": [
                            "$json3"
                        ],
                        "calls": [
                            {
                                "name": "<<assertion>>"
                            }
                        ]
                    }
                ]
            },
            "isNotInteger": {
                "description": "`<<asserter>>` indicates if the JSON is not an integer.",
                "files": {
                    "json1": {
                        "path": "./json/integer.json"
                    },
                    "json2": {
                        "path": "./json/float.json"
                    },
                    "json3": {
                        "path": "./json/object.json"
                    }
                },
                "calls": [
                    {
                        "name": "<<asserter>>",
                        "args": [
                            "$json1"
                        ],
                        "calls": [
                            {
                                "name": "<<assertion>>"
                            }
                        ]
                    },
                    {
                        "name": "<<asserter>>",
                        "args": [
                            "$json2"
                        ],
                        "calls": [
                            {
                                "name": "<<assertion>>"
                            }
                        ]
                    },
                    {
                        "name": "<<asserter>>",
                        "args": [
                            "$json3"
                        ],
                        "calls": [
                            {
                                "name": "<<assertion>>"
                            }
                        ]
                    }
                ]
            },
            "isNull": {
                "files": {
                    "json1": {
                        "path": "./json/null.json"
                    },
                    "json2": {
                        "path": "./json/float.json"
                    },
                    "json3": {
                        "path": "./json/array.json"
                    }
                },
                "calls": [
                    {
                        "name": "<<asserter>>",
                        "args": [
                            "$json1"
                        ],
                        "calls": [
                            {
                                "name": "<<assertion>>"
                            }
                        ]
                    },
                    {
                        "name": "<<asserter>>",
                        "args": [
                            "$json2"
                        ],
                        "calls": [
                            {
                                "name": "<<assertion>>"
                            }
                        ]
                    },
                    {
                        "name": "<<asserter>>",
                        "args": [
                            "$json3"
                        ],
                        "calls": [
                            {
                                "name": "<<assertion>>"
                            }
                        ]
                    }
                ]
            },
            "isNotNull": {
                "files": {
                    "json1": {
                        "path": "./json/null.json"
                    },
                    "json2": {
                        "path": "./json/float.json"
                    },
                    "json3": {
                        "path": "./json/array.json"
                    }
                },
                "calls": [
                    {
                        "name": "<<asserter>>",
                        "args": [
                            "$json1"
                        ],
                        "calls": [
                            {
                                "name": "<<assertion>>"
                            }
                        ]
                    },
                    {
                        "name": "<<asserter>>",
                        "args": [
                            "$json2"
                        ],
                        "calls": [
                            {
                                "name": "<<assertion>>"
                            }
                        ]
                    },
                    {
                        "name": "<<asserter>>",
                        "args": [
                            "$json3"
                        ],
                        "calls": [
                            {
                                "name": "<<assertion>>"
                            }
                        ]
                    }
                ]
            },
            "isObject": {
                "description": "`<<asserter>>` indicates if the JSON is an object.",
                "files": {
                    "json1": {
                        "path": "./json/object.json"
                    },
                    "json2": {
                        "path": "./json/array.json"
                    },
                    "json3": {
                        "path": "./json/integer.json"
                    }
                },
                "calls": [
                    {
                        "name": "<<asserter>>",
                        "args": [
                            "$json1"
                        ],
                        "calls": [
                            {
                                "name": "<<assertion>>"
                            }
                        ]
                    },
                    {
                        "name": "<<asserter>>",
                        "args": [
                            "$json2"
                        ],
                        "calls": [
                            {
                                "name": "<<assertion>>"
                            }
                        ]
                    },
                    {
                        "name": "<<asserter>>",
                        "args": [
                            "$json3"
                        ],
                        "calls": [
                            {
                                "name": "<<assertion>>"
                            }
                        ]
                    }
                ]
            },
            "isNotObject": {
                "description": "`<<asserter>>` indicates if the JSON is not an object.",
                "files": {
                    "json1": {
                        "path": "./json/object.json"
                    },
                    "json2": {
                        "path": "./json/array.json"
                    },
                    "json3": {
                        "path": "./json/integer.json"
                    }
                },
                "calls": [
                    {
                        "name": "<<asserter>>",
                        "args": [
                            "$json1"
                        ],
                        "calls": [
                            {
                                "name": "<<assertion>>"
                            }
                        ]
                    },
                    {
                        "name": "<<asserter>>",
                        "args": [
                            "$json2"
                        ],
                        "calls": [
                            {
                                "name": "<<assertion>>"
                            }
                        ]
                    },
                    {
                        "name": "<<asserter>>",
                        "args": [
                            "$json3"
                        ],
                        "calls": [
                            {
                                "name": "<<assertion>>"
                            }
                        ]
                    }
                ]
            },
            "isString": {
                "description": "`<<asserter>>` indicates if the JSON is a string.",
                "files": {
                    "json1": {
                        "path": "./json/string.json"
                    },
                    "json2": {
                        "path": "./json/array.json"
                    },
                    "json3": {
                        "path": "./json/object.json"
                    }
                },
                "calls": [
                    {
                        "name": "<<asserter>>",
                        "args": [
                            "$json1"
                        ],
                        "calls": [
                            {
                                "name": "<<assertion>>"
                            }
                        ]
                    },
                    {
                        "name": "<<asserter>>",
                        "args": [
                            "$json2"
                        ],
                        "calls": [
                            {
                                "name": "<<assertion>>"
                            }
                        ]
                    },
                    {
                        "name": "<<asserter>>",
                        "args": [
                            "$json3"
                        ],
                        "calls": [
                            {
                                "name": "<<assertion>>"
                            }
                        ]
                    }
                ]
            },
            "isNotString": {
                "description": "`<<asserter>>` indicates if the JSON is not a string.",
                "files": {
                    "json1": {
                        "path": "./json/string.json"
                    },
                    "json2": {
                        "path": "./json/array.json"
                    },
                    "json3": {
                        "path": "./json/object.json"
                    }
                },
                "calls": [
                    {
                        "name": "<<asserter>>",
                        "args": [
                            "$json1"
                        ],
                        "calls": [
                            {
                                "name": "<<assertion>>"
                            }
                        ]
                    },
                    {
                        "name": "<<asserter>>",
                        "args": [
                            "$json2"
                        ],
                        "calls": [
                            {
                                "name": "<<assertion>>"
                            }
                        ]
                    },
                    {
                        "name": "<<asserter>>",
                        "args": [
                            "$json3"
                        ],
                        "calls": [
                            {
                                "name": "<<assertion>>"
                            }
                        ]
                    }
                ]
            },
            "size": {
                "files": {
                    "json1": {
                        "path": "./json/array.json"
                    },
                    "json2": {
                        "path": "./json/string.json"
                    },
                    "json3": {
                        "path": "./json/object.json"
                    }
                },
                "calls": [
                    {
                        "name": "<<asserter>>",
                        "args": [
                            "$json1"
                        ],
                        "calls": [
                            {
                                "name": "<<assertion>>",
                                "calls": [
                                    {
                                        "name": "isEqualTo",
                                        "args": [
                                            2
                                        ]
                                    },
                                    {
                                        "name": "isEqualTo",
                                        "args": [
                                            3
                                        ]
                                    }
                                ]
                            }
                        ]
                    },
                    {
                        "name": "<<asserter>>",
                        "args": [
                            "$json2"
                        ],
                        "calls": [
                            {
                                "name": "<<assertion>>"
                            }
                        ]
                    },
                    {
                        "name": "<<asserter>>",
                        "args": [
                            "$json3"
                        ],
                        "calls": [
                            {
                                "name": "<<assertion>>"
                            }
                        ]
                    }
                ]
            }
        }
    }
}
